Metodología de machine learning
…
<code class ='r hljs remark-code'>Reg_bas_fit <- Reg_bas_wflow %>%<br>  <span style='color:deeppink;underline:text-decoration'>fit</span>(<span style='color:gray'>data</span> = datos_entrenamiento)<br></code> <code class ='r hljs remark-code'>Resultado_reg_bas <- Reg_bas_fit %>%<br>  <span style='color:deeppink;underline:text-decoration'>pull_workflow_fit</span>() %>%<br>  <span style='color:deeppink;underline:text-decoration'>tidy</span>()</code>

</div>

</div>

---

<section style="text-align: center;"><h2><p class="text-info">Ajuste de un modelo básico de regresión</p></h2></section>

<br>

```
## # A tibble: 99 x 5
##    term          estimate  std.error statistic   p.value
##    <chr>            <dbl>      <dbl>     <dbl>     <dbl>
##  1 (Intercept) -1.67      0.0130        -129.  0.       
##  2 EdP          0.0000314 0.00000232      13.5 1.35e- 41
##  3 DA           0.0191    0.0000165     1163.  0.       
##  4 OP_X2       -0.0938    0.00405        -23.2 1.66e-118
##  5 OP_X3       -0.0656    0.00444        -14.8 2.40e- 49
##  6 OP_X4       -0.124     0.00502        -24.7 9.87e-135
##  7 OP_X5       -0.0894    0.00564        -15.9 1.43e- 56
##  8 OP_X6       -0.114     0.00635        -18.0 2.06e- 72
##  9 OP_X7       -0.0845    0.00685        -12.3 5.41e- 35
## 10 OP_X8       -0.110     0.00773        -14.2 5.37e- 46
## # … with 89 more rows
```
…
